%YAML 1.1
%TAG !u! tag:unity3d.com,2011:
--- !u!1001 &3902393187606025150
PrefabInstance:
  m_ObjectHideFlags: 0
  serializedVersion: 2
  m_Modification:
    m_TransformParent: {fileID: 0}
    m_Modifications:
    - target: {fileID: 1445253805238310775, guid: dfdce446724331f45bf249da69aeac17, type: 3}
      propertyPath: healthCost
      value: 1
      objectReference: {fileID: 0}
    - target: {fileID: 5350272430248630486, guid: dfdce446724331f45bf249da69aeac17, type: 3}
      propertyPath: m_FlipX
      value: 1
      objectReference: {fileID: 0}
    - target: {fileID: 5350272430248630487, guid: dfdce446724331f45bf249da69aeac17, type: 3}
      propertyPath: m_Controller
      value: 
      objectReference: {fileID: 22100000, guid: 0ebc2bda9402f614eb99c60595dbb25b, type: 2}
    - target: {fileID: 5350272431259459057, guid: dfdce446724331f45bf249da69aeac17, type: 3}
      propertyPath: m_Name
      value: Deer
      objectReference: {fileID: 0}
    - target: {fileID: 5350272431259459067, guid: dfdce446724331f45bf249da69aeac17, type: 3}
      propertyPath: deathClearingDelay
      value: 5.05
      objectReference: {fileID: 0}
    - target: {fileID: 5350272431259459069, guid: dfdce446724331f45bf249da69aeac17, type: 3}
      propertyPath: m_RootOrder
      value: 0
      objectReference: {fileID: 0}
    - target: {fileID: 5350272431259459069, guid: dfdce446724331f45bf249da69aeac17, type: 3}
      propertyPath: m_LocalPosition.x
      value: 0
      objectReference: {fileID: 0}
    - target: {fileID: 5350272431259459069, guid: dfdce446724331f45bf249da69aeac17, type: 3}
      propertyPath: m_LocalPosition.y
      value: 0
      objectReference: {fileID: 0}
    - target: {fileID: 5350272431259459069, guid: dfdce446724331f45bf249da69aeac17, type: 3}
      propertyPath: m_LocalPosition.z
      value: 0
      objectReference: {fileID: 0}
    - target: {fileID: 5350272431259459069, guid: dfdce446724331f45bf249da69aeac17, type: 3}
      propertyPath: m_LocalRotation.w
      value: 1
      objectReference: {fileID: 0}
    - target: {fileID: 5350272431259459069, guid: dfdce446724331f45bf249da69aeac17, type: 3}
      propertyPath: m_LocalRotation.x
      value: 0
      objectReference: {fileID: 0}
    - target: {fileID: 5350272431259459069, guid: dfdce446724331f45bf249da69aeac17, type: 3}
      propertyPath: m_LocalRotation.y
      value: 0
      objectReference: {fileID: 0}
    - target: {fileID: 5350272431259459069, guid: dfdce446724331f45bf249da69aeac17, type: 3}
      propertyPath: m_LocalRotation.z
      value: 0
      objectReference: {fileID: 0}
    - target: {fileID: 5350272431259459069, guid: dfdce446724331f45bf249da69aeac17, type: 3}
      propertyPath: m_LocalEulerAnglesHint.x
      value: 0
      objectReference: {fileID: 0}
    - target: {fileID: 5350272431259459069, guid: dfdce446724331f45bf249da69aeac17, type: 3}
      propertyPath: m_LocalEulerAnglesHint.y
      value: 0
      objectReference: {fileID: 0}
    - target: {fileID: 5350272431259459069, guid: dfdce446724331f45bf249da69aeac17, type: 3}
      propertyPath: m_LocalEulerAnglesHint.z
      value: 0
      objectReference: {fileID: 0}
    - target: {fileID: 7450562226989180915, guid: dfdce446724331f45bf249da69aeac17, type: 3}
      propertyPath: m_PresetInfoIsWorld
      value: 1
      objectReference: {fileID: 0}
    m_RemovedComponents: []
  m_SourcePrefab: {fileID: 100100000, guid: dfdce446724331f45bf249da69aeac17, type: 3}
