%YAML 1.1
%TAG !u! tag:unity3d.com,2011:
--- !u!1386491679 &1
PresetManager:
  m_ObjectHideFlags: 0
  serializedVersion: 2
  m_DefaultPresets:
  - first:
      m_NativeTypeID: 1020
      m_ManagedTypePPtr: {fileID: 0}
      m_ManagedTypeFallback: 
    second:
    - m_Preset: {fileID: 2655988077585873504, guid: e7689051185d12f4298e1ebb2693a29f, type: 2}
      m_Filter: 
      m_Disabled: 0
  - first:
      m_NativeTypeID: 1006
      m_ManagedTypePPtr: {fileID: 0}
      m_ManagedTypeFallback: 
    second:
    - m_Preset: {fileID: 2655988077585873504, guid: 6e972fcd6b1a49547886886caf3ae17b, type: 2}
      m_Filter: 
      m_Disabled: 0
  - first:
      m_NativeTypeID: 108
      m_ManagedTypePPtr: {fileID: 0}
      m_ManagedTypeFallback: 
    second:
    - m_Preset: {fileID: 2655988077585873504, guid: 463065d4f17d1d94d848aa127b94dd43, type: 2}
      m_Filter: 
      m_Disabled: 0
