%YAML 1.1
%TAG !u! tag:unity3d.com,2011:
--- !u!74 &7400000
AnimationClip:
  m_ObjectHideFlags: 0
  m_CorrespondingSourceObject: {fileID: 0}
  m_PrefabInstance: {fileID: 0}
  m_PrefabAsset: {fileID: 0}
  m_Name: flower_idle
  serializedVersion: 6
  m_Legacy: 0
  m_Compressed: 0
  m_UseHighQualityCurve: 1
  m_RotationCurves: []
  m_CompressedRotationCurves: []
  m_EulerCurves: []
  m_PositionCurves: []
  m_ScaleCurves: []
  m_FloatCurves: []
  m_PPtrCurves:
  - curve:
    - time: 0
      value: {fileID: 21300000, guid: 46c4bd651c6198b41a4d88e4a82706e6, type: 3}
    - time: 0.29166666
      value: {fileID: 21300000, guid: 5de1cecff7cc3574ba7e0dbf09c72c3d, type: 3}
    - time: 0.41666666
      value: {fileID: 21300000, guid: 6f9e2c8dd567f3f4ea8c1b0cf74103c3, type: 3}
    - time: 0.75
      value: {fileID: 21300000, guid: 5de1cecff7cc3574ba7e0dbf09c72c3d, type: 3}
    - time: 0.875
      value: {fileID: 21300000, guid: 46c4bd651c6198b41a4d88e4a82706e6, type: 3}
    - time: 1
      value: {fileID: 21300000, guid: f2311c239e05afd4aace2c7d7a817505, type: 3}
    - time: 1.125
      value: {fileID: 21300000, guid: 3a8e053352ee0b041bb8571bfa61d782, type: 3}
    - time: 1.4583334
      value: {fileID: 21300000, guid: f2311c239e05afd4aace2c7d7a817505, type: 3}
    - time: 1.5833334
      value: {fileID: 21300000, guid: 46c4bd651c6198b41a4d88e4a82706e6, type: 3}
    - time: 2.4166667
      value: {fileID: 21300000, guid: 46c4bd651c6198b41a4d88e4a82706e6, type: 3}
    attribute: m_Sprite
    path: 
    classID: 212
    script: {fileID: 0}
  m_SampleRate: 24
  m_WrapMode: 0
  m_Bounds:
    m_Center: {x: 0, y: 0, z: 0}
    m_Extent: {x: 0, y: 0, z: 0}
  m_ClipBindingConstant:
    genericBindings:
    - serializedVersion: 2
      path: 0
      attribute: 0
      script: {fileID: 0}
      typeID: 212
      customType: 23
      isPPtrCurve: 1
    pptrCurveMapping:
    - {fileID: 21300000, guid: 46c4bd651c6198b41a4d88e4a82706e6, type: 3}
    - {fileID: 21300000, guid: 5de1cecff7cc3574ba7e0dbf09c72c3d, type: 3}
    - {fileID: 21300000, guid: 6f9e2c8dd567f3f4ea8c1b0cf74103c3, type: 3}
    - {fileID: 21300000, guid: 5de1cecff7cc3574ba7e0dbf09c72c3d, type: 3}
    - {fileID: 21300000, guid: 46c4bd651c6198b41a4d88e4a82706e6, type: 3}
    - {fileID: 21300000, guid: f2311c239e05afd4aace2c7d7a817505, type: 3}
    - {fileID: 21300000, guid: 3a8e053352ee0b041bb8571bfa61d782, type: 3}
    - {fileID: 21300000, guid: f2311c239e05afd4aace2c7d7a817505, type: 3}
    - {fileID: 21300000, guid: 46c4bd651c6198b41a4d88e4a82706e6, type: 3}
    - {fileID: 21300000, guid: 46c4bd651c6198b41a4d88e4a82706e6, type: 3}
  m_AnimationClipSettings:
    serializedVersion: 2
    m_AdditiveReferencePoseClip: {fileID: 0}
    m_AdditiveReferencePoseTime: 0
    m_StartTime: 0
    m_StopTime: 2.4583335
    m_OrientationOffsetY: 0
    m_Level: 0
    m_CycleOffset: 0
    m_HasAdditiveReferencePose: 0
    m_LoopTime: 1
    m_LoopBlend: 0
    m_LoopBlendOrientation: 0
    m_LoopBlendPositionY: 0
    m_LoopBlendPositionXZ: 0
    m_KeepOriginalOrientation: 0
    m_KeepOriginalPositionY: 1
    m_KeepOriginalPositionXZ: 0
    m_HeightFromFeet: 0
    m_Mirror: 0
  m_EditorCurves: []
  m_EulerEditorCurves: []
  m_HasGenericRootTransform: 0
  m_HasMotionFloatCurves: 0
  m_Events: []
